{
  "e0cb39c7fe3b3a933c1af75857bbb61ca456858f7484f2a6373a472d6e65725c": true,
  "578a561a27b19971579d1b2bfbf6525043f2ae1b9733a6c4642b26ea270d62de": true,
  "36e850a71453b74c3c6e167f7fb2852ba9e922579f1c8f94ef03e2a9e7b283f5": true
}
